{
    "niv": {
        "branch": "master",
        "description": "Easy dependency management for Nix projects",
        "homepage": "https://github.com/nmattia/niv",
        "owner": "nmattia",
        "repo": "niv",
        "rev": "af958e8057f345ee1aca714c1247ef3ba1c15f5e",
        "sha256": "1qjavxabbrsh73yck5dcq8jggvh3r2jkbr6b5nlz5d9yrqm9255n",
        "type": "tarball",
        "url": "https://github.com/nmattia/niv/archive/af958e8057f345ee1aca714c1247ef3ba1c15f5e.tar.gz",
        "url_template": "https://github.com/<owner>/<repo>/archive/<rev>.tar.gz"
    },
    "nixpkgs": {
        "branch": "nixpkgs-unstable",
        "description": "Nix Packages collection",
        "homepage": "",
        "owner": "NixOS",
        "repo": "nixpkgs",
        "rev": "e5b478271ea0af7b75d53c92cfa98bdb126b44a7",
        "sha256": "06hmxvnx2swk63i15zp1q70axf53x04f7ywwlnxlcfkk0prrmwbh",
        "type": "tarball",
        "url": "https://github.com/NixOS/nixpkgs/archive/e5b478271ea0af7b75d53c92cfa98bdb126b44a7.tar.gz",
        "url_template": "https://github.com/<owner>/<repo>/archive/<rev>.tar.gz"
    },
    "nixpkgs-mozilla": {
        "branch": "master",
        "description": "mozilla related nixpkgs (extends nixos/nixpkgs repo)",
        "homepage": "",
        "owner": "mozilla",
        "repo": "nixpkgs-mozilla",
        "rev": "8c007b60731c07dd7a052cce508de3bb1ae849b4",
        "sha256": "1zybp62zz0h077zm2zmqs2wcg3whg6jqaah9hcl1gv4x8af4zhs6",
        "type": "tarball",
        "url": "https://github.com/mozilla/nixpkgs-mozilla/archive/8c007b60731c07dd7a052cce508de3bb1ae849b4.tar.gz",
        "url_template": "https://github.com/<owner>/<repo>/archive/<rev>.tar.gz"
    }
}
